{
    "/": "LoginController:getView",
    "/recherche_stagiaire": "StagiaireController:getStagiaire",
    "/archives-emploi": "ArchivesController:getAllEmploi",
    "/api/archives-emploi": {
        "POST": "ArchivesController:createNouvelleOffreEmploi"
    },
    "/api/archives-emploi/(:)": {
        "GET": "ArchivesController:getArchivesEmploiId"
    },

    "/archives-emploi/skills": "ArchivesController:getSkills",

    "/loginpage": "LoginController:getView",
    "/login": "LoginController:login",
    "/logout": "LoginController:logout",

    "/offres-emploi": "OffreController:getOffresEmploi",

    "/api/offres-emploi/(:)": {
        "GET": "OffreController:getOffreByID",
        "POST": "OffreController:createOffre",
        "PUT": "OffreController:updateOffreByID",
        "DELETE": "OffreController:archiveOffreByID"
    },

    "/skills": "SkillController:getSkills",

   "/api/skill/(:)":
   {
       "POST": "SkillController:createSkill"
   },

    "/unreadmessages" : "NotificationController:countMessages",
    "/unvalidevents" : "NotificationController:countEvenements"
    
    
}
